id,first_name,last_name,age,gender
94,Edward,Rivera,26,Male
86,Scott,Rodriguez,32,Male
93,Phyllis,Romero,27,Female
57,Steve,Ruiz,28,Male
32,Joshua,Sanders,32,Male
75,Helen,Scott,32,Female
37,Mildred,Shaw,32,Female
64,Russell,Sims,35,Male
79,Bruce,Stephens,28,Male
27,George,Stone,26,Male
20,Ashley,Thomas,35,Female
76,Michael,Thomas,31,Male
87,Phillip,Wagner,35,Male
83,Melissa,Wagner,28,Female
74,Joan,Washington,39,Female
59,Christopher,Washington,24,Male
49,Carol,Washington,33,Female
48,Keith,Watkins,20,Male
60,Michelle,Watkins,23,Female
65,Carlos,Wilson,22,Male
