transaction_id,customer_id,transaction_amount,transaction_location
300,76,$894.16,District of Columbia
301,8,$643.03,Kentucky
302,46,$427.76,California
303,64,$282.57,Connecticut
304,43,$687.59,Connecticut
305,14,$991.77,California
306,60,$743.23,Illinois
307,68,$363.30,District of Columbia
308,55,$669.17,Ohio
309,49,$95.30,Michigan
310,55,$687.20,Nebraska
311,56,$295.41,Texas
312,33,$571.82,Delaware
313,79,$703.23,California
314,72,$489.28,North Carolina
315,38,$965.35,California
316,33,$431.86,Alabama
317,42,$320.52,Texas
318,35,$55.45,Texas
319,24,$719.64,Kentucky
320,90,$106.63,Virginia
321,59,$954.04,Michigan
322,34,$545.71,Michigan
323,65,$746.92,Ohio
324,19,$779.76,California
325,45,$29.35,Louisiana
326,22,$207.53,Alaska
327,71,$360.78,Florida
328,56,$286.53,Georgia
329,68,$919.32,Florida
330,70,$39.43,Colorado
331,82,$331.90,New York
332,46,$413.33,New York
333,45,$855.97,California
334,31,$313.63,Florida
335,48,$159.98,District of Columbia
336,62,$2.69,Georgia
337,42,$159.80,Tennessee
338,38,$331.65,Connecticut
339,55,$574.97,Texas
340,45,$196.03,Texas
341,47,$916.60,California
342,50,$29.97,Illinois
343,18,$910.66,Connecticut
344,38,$546.31,Nevada
345,34,$12.35,California
346,33,$493.08,Arkansas
347,66,$10.03,California
348,37,$104.44,Louisiana
349,67,$260.91,Tennessee
350,92,$944.56,New York
351,38,$542.16,District of Columbia
352,60,$985.19,Texas
353,27,$912.21,Florida
354,81,$927.45,California
355,60,$849.18,California
356,35,$419.63,Georgia
357,27,$121.33,District of Columbia
358,18,$633.74,Georgia
359,31,$625.17,Connecticut
360,62,$714.34,Ohio
361,38,$517.25,Florida
362,2,$958.71,California
363,38,$710.59,Colorado
364,15,$596.24,California
365,57,$705.48,Michigan
366,47,$66.59,New York
367,78,$127.04,Maryland
368,46,$702.38,Florida
369,30,$888.26,Connecticut
370,45,$604.30,Florida
371,73,$970.96,Virginia
372,58,$784.75,Alabama
373,69,$384.58,California
374,60,$209.80,California
375,60,$738.97,Ohio
376,57,$824.67,California
377,23,$495.83,California
378,52,$250.11,Tennessee
379,13,$17.00,Michigan
380,77,$247.49,New York
381,45,$609.98,Illinois
382,52,$825.50,Colorado
383,62,$607.76,Texas
384,14,$398.53,Connecticut
385,78,$52.64,California
386,32,$382.46,Virginia
387,71,$894.99,California
388,49,$361.65,Texas
389,28,$548.93,Texas
390,30,$20.07,Nebraska
391,63,$702.51,New Hampshire
392,49,$329.75,North Carolina
393,39,$806.91,Massachusetts
394,46,$910.94,Texas
395,68,$296.99,California
396,55,$324.99,Arizona
397,39,$993.68,Indiana
398,12,$326.48,Connecticut
399,32,$442.63,Florida
